,begin_dag,begin_jaar,begin_maand,complete achternaam,eind_dag,eind_jaar,eind_maand,partij,voorletters
0,16,1946,5,Romme,7,1948,7,KVP,C.P.M.
1,16,1946,5,Andriessen,7,1948,7,KVP,W.J.
2,16,1946,5,Beel,7,1948,7,KVP,L.J.M.
3,16,1946,5,van Vliet,7,1948,7,KVP,F.
4,16,1946,5,Mol,7,1948,7,KVP,J.H.
5,16,1946,5,Groen,7,1948,7,KVP,J.
6,7,1948,7,Romme,25,1952,6,KVP,C.P.M.
7,7,1948,7,van Vliet,25,1952,6,KVP,F.
8,7,1948,7,Serrarens,25,1952,6,KVP,P.J.S.
9,7,1948,7,Maenen,25,1952,6,KVP,J.H.
10,7,1948,7,Andriessen,25,1952,6,KVP,W.J.
11,7,1948,7,Klompé,25,1952,6,KVP,M.A.M.
12,7,1948,7,van der Weijden,25,1952,6,KVP,M.P.
13,7,1948,7,Groen,25,1952,6,KVP,J.
14,25,1952,6,Romme,13,1956,6,KVP,C.P.M.
15,13,1956,6,Romme,12,1959,3,KVP,C.P.M.
16,12,1959,3,Klompé,15,1963,5,KVP,M.A.M.
17,12,1959,3,Veldkamp,15,1963,5,KVP,G.M.J.
18,12,1959,3,de Kort,15,1963,5,KVP,W.L.P.M.
19,12,1959,3,Maenen,15,1963,5,KVP,J.H.
20,15,1963,5,Schmelzer,15,1967,2,KVP,W.K.N.
21,15,1963,5,Lardinois,15,1967,2,KVP,P.J.
22,15,1963,5,van der Ploeg,15,1967,2,KVP,C.J.
23,15,1963,5,Klompé,15,1967,2,KVP,M.A.M.
24,16,1946,5,Drees,7,1948,7,PvdA,W.
25,16,1946,5,van der Goes,7,1948,7,PvdA,M.
26,16,1946,5,Vorrink,7,1948,7,PvdA,J.J.
27,16,1946,5,Schermerhorn,7,1948,7,PvdA,W.
28,16,1946,5,Lieftinck,7,1948,7,PvdA,P.
29,16,1946,5,Joekes,7,1948,7,PvdA,A.M.
30,16,1946,5,Vos,7,1948,7,PvdA,H.
31,16,1946,5,Mansholt,7,1948,7,PvdA,S.L.
32,7,1948,7,Drees,25,1952,6,PvdA,W.
33,25,1952,6,"W, Drees",13,1956,6,PvdA,
34,13,1956,6,Willems,12,1959,3,PvdA,J.M.
35,13,1956,6,Suurhoff,12,1959,3,PvdA,J.G.
36,13,1956,6,Burger,12,1959,3,PvdA,J.A.W.
37,13,1956,6,Samkalden,12,1959,3,PvdA,I.
38,13,1956,6,Hofstra,12,1959,3,PvdA,H.J.
39,13,1956,6,Vondeling,12,1959,3,PvdA,A.
40,12,1959,3,Vondeling,15,1963,5,PvdA,A.
41,12,1959,3,Suurhoff,15,1963,5,PvdA,J.G.
42,12,1959,3,Willems,15,1963,5,PvdA,J.M.
43,15,1963,5,den Uyl,15,1967,2,PvdA,J.M.
