,complete achternaam,jaar,partij,roepnaam,voorletters
4,Loeff,1918,RK,,J.A.
5,Bogaardt,1918,RK,,W.H.
6,Van Wijnbergen,1918,RK,,A.I.M.J.
7,Kolkman,1918,RK,,M.J.C.M.
8,van Dijk,1918,RK,,J.B.
9,Bomans,1918,RK,,J.B.
10,Fruytier,1918,RK,,P.F.
11,Engels,1918,RK,,A.H.J.
12,Nolens,1918,RK,,W.H.
22,Oudegeeest,1918,SDAP,,J.
23,Kleerekoper,1918,SDAP,,A.B.
24,ter Laan,1918,SDAP,,J.
25,ter Laan,1918,SDAP,,K.
26,Troelstra,1918,SDAP,,P.J.
27,Duijs,1918,SDAP,,J.E.W.
28,Hugenholtz,1918,SDAP,,F.W.N.
29,Helsdingen,1918,SDAP,,W.P.G.
30,Albarda,1918,SDAP,,J.W.
31,Schaper,1918,SDAP,,J.H.A.
32,De Jonge,1918,SDAP,,W.C.
37,Van Sasse van Ysselt,1922,RK,,A.F.O.
38,Van Rijckevorsel,1922,RK,,A.B.G.M.
39,Van Wijnbergen,1922,RK,,A.I.M.J.
40,Stulemeyer,1922,RK,,H.
41,Koolen,1922,RK,,D.A.P.N.
42,Kolkman,1922,RK,,M.J.C.M.
43,Kuiper,1922,RK,,C.J.
44,Van Dijk,1922,RK,,J.B.
45,Bomans,1922,RK,,J.B.
46,Fruytier,1922,RK,,P.F.
47,Engels,1922,RK,,A.H.J.
48,Van Vuuren,1922,RK,,A.C.A.
49,Nolens,1922,RK,,W.H.
58,Vliegen,1922,SDAP,,W.H.
59,Kleerekoper,1922,SDAP,,A.B.
60,ter Laan,1922,SDAP,,J.
61,ter Laan,1922,SDAP,,K.
62,Troelstra,1922,SDAP,,P.J.
63,Duijs,1922,SDAP,,J.E.W.
64,Hugenholtz,1922,SDAP,,F.W.N.
65,Sannes,1922,SDAP,,G.W.
66,Albarda,1922,SDAP,,J.W.
67,Schaper,1922,SDAP,,J.H.A.
70,Van Sasse van Ysselt,1925,RKSP,,A.F.O.
71,Van Rijckevorsel,1925,RKSP,,A.B.G.M.
72,Van Wijnbergen,1925,RKSP,,A.I.M.J.
73,Koolen,1925,RKSP,,D.A.P.N.
74,Van Dijk,1925,RKSP,,J.B.
75,Bomans,1925,RKSP,,J.B.
76,Fruytier,1925,RKSP,,P.F.
77,Van Vuuren,1925,RKSP,,A.C.A.
78,Engels,1925,RKSP,,A.H.J.
79,Nolens,1925,RKSP,,W.H.
91,Vliegen,1925,SDAP,,W.H.
92,Kleerekoper,1925,SDAP,,A.B.
93,ter Laan,1925,SDAP,,J.
94,ter Laan,1925,SDAP,,K.
95,Gerhard,1925,SDAP,,A.H.
96,Duijs,1925,SDAP,,J.E.W.
97,Van der Waerden,1925,SDAP,Theo,T.
98,Sannes,1925,SDAP,,G.W.
99,Albarda,1925,SDAP,,J.W.
100,Schaper,1925,SDAP,,J.H.A.
114,Fleskens,1929,RKSP,,A.N.
115,Feber,1929,RKSP,,L.J.M.
116,Van Schaik,1929,RKSP,,J.R.H.
117,Ruijs de Beerenbrouck,1929,RKSP,,Ch.J.M.
118,Van Vuuren,1929,RKSP,,A.C.A.
119,Van de Bilt,1929,RKSP,,Ch.L.
120,Suring,1929,RKSP,,J.G.
121,Aalberse,1929,RKSP,,P.J.M.
122,Nolens,1929,RKSP,,W.H.
130,Vliegen,1929,SDAP,,W.H.
131,Kleerekoper,1929,SDAP,,A.B.
132,ter Laan,1929,SDAP,,J.
133,ter Laan,1929,SDAP,,K.
134,Gerhard,1929,SDAP,,A.H.
135,Duijs,1929,SDAP,,J.E.W.
136,Van der Waerden,1929,SDAP,Theo,T.
137,Sannes,1929,SDAP,,G.W.
138,Albarda,1929,SDAP,,J.W.
139,Schaper,1929,SDAP,,J.H.A.
142,Van de Bilt,1933,RKSP,,Ch.L.
143,Van Schaik,1933,RKSP,,J.R.H.
144,Loerakker,1933,RKSP,,A.J.
145,Deckers,1933,RKSP,,L.N.
146,Hermans,1933,RKSP,,H.G.M.
147,Goseling,1933,RKSP,,C.M.J.F.
148,Kuiper,1933,RKSP,,C.J.
149,Aalberse,1933,RKSP,,P.J.M.
150,Suring,1933,RKSP,,J.G.
162,Vliegen,1933,SDAP,,W.H.
163,Van Braambeek,1933,SDAP,,H.J.
164,ter Laan,1933,SDAP,,J.
165,Drees,1933,SDAP,,W.
166,ter Laan,1933,SDAP,,K.
167,Albarda,1933,SDAP,,J.W.
168,Duijs,1933,SDAP,,J.E.W.
169,Van der Waerden,1933,SDAP,Theo,T.
170,Hiemstra,1933,SDAP,,P.F.
171,Van der Sluis,1933,SDAP,,W.
172,Van der Heide,1933,SDAP,,A.
173,Schaper,1933,SDAP,,J.H.A.
176,Deckers,1937,RKSP,,L.N.
177,Goseling,1937,RKSP,,C.M.J.F.
178,Moller,1937,RKSP,,H.W.E.
179,Aalberse,1937,RKSP,,P.J.M.
180,Beaufort,1937,RKSP,,L.J.C.
181,Hermans,1937,RKSP,,H.G.M.
187,Drop,1937,SDAP,,W.
188,Van der Sluis,1937,SDAP,,W.
189,ter Laan,1937,SDAP,,J.
190,Drees,1937,SDAP,,W.
191,Albarda,1937,SDAP,,J.W.
